<?xml version="1.0" encoding="UTF-8" standalone="no"?>
<!DOCTYPE svg  PUBLIC '-//W3C//DTD SVG 1.1//EN'  'http://www.w3.org/Graphics/SVG/1.1/DTD/svg11.dtd'>
<svg xmlns="http://www.w3.org/2000/svg" version="1.1">
<defs>
<font id="ITCAvantGardeStd-Bold" horiz-adv-x="618">
<font-face underline-position="-150" unicode-range="U+0020-00FE" underline-thickness="50" font-weight="700" bbox="-74 -271 1057.9 1017" x-height="555" panose-1="2 11 8 2 2 2 2 2 2 4" font-family="ITC Avant Garde Std Md" units-per-em="1000" cap-height="740" descent="-260" ascent="740"/>
<missing-glyph/>
<glyph glyph-name="space" unicode=" " horiz-adv-x="309"/>
<glyph glyph-name="exclam" unicode="!" horiz-adv-x="333" d="M252 740v-496h-171v496h171zM252 170v-170h-171v170h171z"/>
<glyph glyph-name="quotedbl" unicode='&quot;' horiz-adv-x="463" d="M199 444h-124v296h124v-296zM388 444h-124v296h124v-296z"/>
<glyph glyph-name="numbersign" unicode="#" d="M434 231l-24 -174h-113l24 174h-78l-24 -174h-114l24 174h-99l15 111h100l10 73h-100l15 111h100l22 158h114l-22 -158h78l22 158h114l-22 -158h111l-15 -111h-112l-10 -73h111l-15 -111h-112zM337 342l10 73h-78l-10 -73h78z"/>
<glyph glyph-name="dollar" unicode="$" d="M381 811v-101q63 -15 101.5 -64.5t37.5 -125.5h-155q0 24 -13.5 43.5t-41.5 19.5q-24 0 -39 -16.5t-15 -39.5q0 -35 28.5 -54t106.5 -49q44 -17 75 -42t45.5 -53t20.5 -51t6 -46q0 -66 -40 -122.5t-117 -84.5v-101h-135v101q-81 12 -123.5 71.5t-42.5 127.5h171 q0 -29 16.5 -50t42.5 -21q25 0 41 18t16 41q0 17 -9 32t-21 25t-34 21t-36.5 17t-40.5 15q-140 47 -140 186q0 84 46.5 133.5t113.5 68.5v101h135z"/>
<glyph glyph-name="percent" unicode="%" horiz-adv-x="858" d="M36 574v1q0 74 53 127t127 53q75 0 127.5 -53t52.5 -128t-53 -127.5t-127 -52.5t-127 52.5t-53 127.5zM147 574v-1q0 -27 20.5 -47.5t48.5 -20.5t48.5 20.5t20.5 49.5t-20 49t-49 20t-49 -20t-20 -50zM461 166v1q0 74 53 127t128 53q74 0 127 -53t53 -128t-53.5 -128 t-126.5 -53q-74 0 -127.5 52.5t-53.5 128.5zM572 166v-1q0 -28 20.5 -48.5t49.5 -20.5q28 0 48.5 20.5t20.5 49.5q0 30 -20.5 50t-48.5 20q-30 0 -50 -20.5t-20 -49.5zM638 740l-307 -740h-115l306 740h116z"/>
<glyph glyph-name="ampersand" unicode="&amp;" horiz-adv-x="758" d="M550 435h175l-120 -225l112 -114l-113 -111l-90 93q-20 -34 -69.5 -63.5t-129.5 -29.5q-121 0 -193.5 61.5t-72.5 153.5q0 39 12.5 72t37.5 59t42 39.5t45 32.5q-70 71 -70 160q0 81 59.5 136t145.5 55q84 0 139 -53t55 -129q0 -34 -10.5 -63t-29.5 -51t-31 -32.5 t-31 -23.5l82 -83zM322 620h-1q-17 0 -30.5 -13t-13.5 -36q0 -36 42 -80q46 46 46 82q0 20 -11.5 33.5t-31.5 13.5zM405 185l-117 118q-17 -14 -26.5 -22.5t-20 -26.5t-10.5 -37q0 -34 25.5 -53.5t63.5 -19.5q57 0 85 41z"/>
<glyph glyph-name="quotesingle" unicode="&apos;" horiz-adv-x="242" d="M183 444h-124v296h124v-296z"/>
<glyph glyph-name="parenleft" unicode="(" horiz-adv-x="473" d="M430 754v-183q-71 -30 -128 -118t-57 -209q0 -116 55.5 -204t129.5 -120v-184q-94 30 -166.5 88t-114.5 129t-63 145.5t-21 147.5t21 147t62.5 145t114.5 128.5t167 87.5z"/>
<glyph glyph-name="parenright" unicode=")" horiz-adv-x="473" d="M43 -264v183q71 30 128 118t57 209q0 116 -55.5 204t-129.5 120v184q94 -30 166.5 -88t114.5 -129t63 -145.5t21 -147.5t-21 -147t-62.5 -145t-114.5 -128.5t-167 -87.5z"/>
<glyph glyph-name="asterisk" unicode="*" horiz-adv-x="670" d="M389 740l-32 -153l118 103l52 -94l-144 -46l144 -46l-56 -98l-116 106l34 -152h-108l32 154l-114 -108l-56 98l144 48l-144 44l52 94l120 -102l-34 152h108z"/>
<glyph glyph-name="plus" unicode="+" horiz-adv-x="600" d="M380 506v-173h172v-160h-172v-173h-160v173h-172v160h172v173h160z"/>
<glyph glyph-name="comma" unicode="," horiz-adv-x="314" d="M243 170l-100 -250h-137l64 250h173z"/>
<glyph glyph-name="hyphen" unicode="-" horiz-adv-x="281" d="M0 370h281v-163h-281v163z"/>
<glyph glyph-name="period" unicode="." horiz-adv-x="314" d="M244 170v-170h-173v170h173z"/>
<glyph glyph-name="slash" unicode="/" horiz-adv-x="593" d="M72 -100l265 840h184l-264 -840h-185z"/>
<glyph glyph-name="zero" unicode="0" d="M33 267v206q0 76 28 133.5t72.5 88t89.5 45t89 14.5q31 0 65 -8t72 -28.5t67.5 -51t49 -80.5t19.5 -113v-206q0 -73 -26 -130t-67.5 -88.5t-87.5 -47t-92 -15.5q-35 0 -71 9t-74 30t-67.5 52.5t-48 80.5t-18.5 109zM222 478v-216q0 -43 19 -76.5t68 -33.5q87 0 87 110 v216q0 110 -87 110q-35 0 -55.5 -20.5t-26 -42.5t-5.5 -47z"/>
<glyph glyph-name="one" unicode="1" d="M225 0v581h-121v159h310v-740h-189z"/>
<glyph glyph-name="two" unicode="2" d="M51 0v147q67 56 199 168q70 58 99.5 96.5t29.5 93.5q0 42 -21.5 62.5t-57.5 20.5q-74 0 -76 -117h-180q1 34 3 53.5t12.5 54t28.5 62.5q29 45 76 72t82 34t70 7q118 0 185 -67t67 -162q0 -70 -26.5 -124.5t-95.5 -117.5q-90 -82 -136 -124h263v-159h-522z"/>
<glyph glyph-name="three" unicode="3" d="M239 524h-186q3 120 90 181q68 49 163 49q104 0 168 -60t64 -142q0 -101 -98 -155q139 -47 139 -179q0 -96 -81 -164t-193 -68q-69 0 -133 26.5t-98 77.5q-32 46 -41 131h191q16 -68 85 -69q40 0 60.5 23t20.5 60q0 75 -99 75h-67v139h32q93 0 93 74q0 27 -13 46t-39 19 q-54 0 -58 -64z"/>
<glyph glyph-name="four" unicode="4" d="M341 0v130h-326v138l331 472h176v-462h82v-148h-82v-130h-181zM205 278h148v232z"/>
<glyph glyph-name="five" unicode="5" d="M116 740h409v-159h-264l-16 -101q40 22 100 22q62 0 111.5 -24t78 -62t43 -80t14.5 -82q0 -45 -17 -90.5t-50 -86t-89.5 -66.5t-127.5 -26q-115 0 -190 60.5t-92 152.5h190q34 -46 87 -46q41 0 70.5 29t29.5 69q0 39 -27 68t-74 29q-69 0 -97 -64l-153 38z"/>
<glyph glyph-name="six" unicode="6" d="M273 740h219l-134 -183l-15 -21t-14 -19l7 1q6 0 15.5 0.5t15.5 0.5q57 0 108.5 -26.5t88 -85.5t36.5 -139q0 -124 -83.5 -203t-203.5 -79q-71 0 -131.5 25.5t-97.5 74.5q-63 71 -63 186q0 93 68 198zM207 255v-1q0 -48 31 -75t69 -27q43 0 73.5 28.5t30.5 71.5 q0 39 -28 70t-76 31q-44 0 -72 -29t-28 -69z"/>
<glyph glyph-name="seven" unicode="7" d="M65 740h482v-145l-260 -595h-208l273 581h-287v159z"/>
<glyph glyph-name="eight" unicode="8" d="M58 548v1q0 82 65 143.5t186 61.5t186 -61.5t65 -144.5q0 -82 -72 -141q91 -45 91 -172q0 -109 -75.5 -179t-194.5 -70t-194.5 70t-75.5 179q0 127 91 172q-72 59 -72 141zM241 533v-1q0 -29 20 -48t48 -19t48 19.5t20 48.5t-20 48.5t-48 19.5t-48 -19.5t-20 -48.5z M228 236v-1q0 -31 22.5 -57t58.5 -26t58.5 26t22.5 58q0 33 -22 59t-59 26t-59 -26t-22 -59z"/>
<glyph glyph-name="nine" unicode="9" d="M347 0h-219l134 183q4 5 14 19l15 21l-7 -1q-6 0 -15.5 -0.5t-15.5 -0.5q-57 0 -108.5 26.5t-88 85.5t-36.5 139q0 124 83.5 203t203.5 79q71 0 131.5 -25.5t97.5 -74.5q63 -71 63 -186q0 -93 -68 -198zM413 486v1q0 47 -31 74t-71 27q-42 0 -72 -28t-30 -71 q0 -39 27.5 -70t74.5 -31q45 0 73.5 29t28.5 69z"/>
<glyph glyph-name="colon" unicode=":" horiz-adv-x="314" d="M244 555v-170h-173v170h173zM244 170v-170h-173v170h173z"/>
<glyph glyph-name="semicolon" unicode=";" horiz-adv-x="314" d="M244 555v-170h-173v170h173zM244 170l-110 -250h-127l64 250h173z"/>
<glyph glyph-name="less" unicode="&lt;" horiz-adv-x="600" d="M46 330l508 214v-175l-340 -117l340 -115v-175l-508 214v154z"/>
<glyph glyph-name="equal" unicode="=" horiz-adv-x="600" d="M48 465h504v-160h-504v160zM48 201h504v-160h-504v160z"/>
<glyph glyph-name="greater" unicode="&gt;" horiz-adv-x="600" d="M46 137l340 117l-340 115v175l508 -214v-154l-508 -214v175z"/>
<glyph glyph-name="question" unicode="?" horiz-adv-x="592" d="M361 235h-174q1 49 24.5 86t79.5 90q68 67 68 110q0 62 -58 62q-64 0 -68 -75q-1 -7 -1 -21h-183q-1 9 -1 18q0 108 74 178.5t189 70.5q110 0 175 -65.5t65 -146.5q0 -43 -19.5 -82.5t-38 -59.5t-55.5 -54q-46 -43 -60.5 -64.5t-16.5 -46.5zM361 170v-170h-174v170h174z "/>
<glyph glyph-name="at" unicode="@" horiz-adv-x="748" d="M603 112l21 -92q-100 -36 -232 -36q-84 0 -153 25t-113 64.5t-74 90.5t-42.5 101.5t-12.5 99.5q0 101 47 189.5t138 145t207 56.5q155 0 254.5 -94.5t99.5 -233.5q0 -108 -59 -188.5t-137 -80.5q-73 0 -98 72q-25 -41 -53 -56.5t-66 -15.5q-64 0 -109 50.5t-45 126.5 q0 83 56 153.5t139 70.5q38 0 64 -17t35 -42l10 47h104l-37 -218q-5 -33 -7 -48q-1 -29 27 -29q29 0 55.5 52t26.5 122q0 104 -72.5 171t-183.5 67q-128 0 -211 -91t-83 -211q0 -29 6 -61t25 -74t49 -74.5t85.5 -55.5t127.5 -23q110 0 211 37zM283 340v-1q0 -43 22.5 -64.5 t52.5 -21.5q57 0 82 68q10 32 10 64t-16 56.5t-50 24.5q-42 0 -71.5 -38.5t-29.5 -87.5z"/>
<glyph glyph-name="A" unicode="A" horiz-adv-x="758" d="M248 107l-34 -107h-205l293 740h163l284 -740h-207l-35 107h-259zM458 257l-83 258l-80 -258h163z"/>
<glyph glyph-name="B" unicode="B" horiz-adv-x="647" d="M67 0v740h272q115 0 179 -50q66 -49 66 -144q0 -100 -86 -149q122 -43 122 -172q0 -46 -17.5 -90t-50.5 -71q-49 -41 -96 -52.5t-146 -11.5h-243zM256 574v-115h67q33 0 50 7q30 14 30 52q0 36 -29 49q-16 7 -51 7h-67zM256 301v-135h89q36 0 56 9q38 16 38 62 q0 42 -36 56q-19 8 -58 8h-89z"/>
<glyph glyph-name="C" unicode="C" horiz-adv-x="832" d="M603 277h198q-32 -131 -135.5 -211t-238.5 -80q-169 0 -279.5 115t-110.5 270q0 96 45.5 182.5t136 143.5t206.5 57q82 0 153 -29.5t115.5 -75t72 -95t35.5 -95.5h-198q-19 51 -64.5 90t-114.5 39q-90 0 -144 -65.5t-54 -150.5q0 -88 55 -154t144 -66q120 0 178 125z"/>
<glyph glyph-name="D" unicode="D" horiz-adv-x="742" d="M67 0v740h245q29 0 47 -1t52.5 -4t60.5 -12t57 -23.5t59 -39.5t51 -58q68 -93 68 -230q0 -79 -20.5 -144t-64 -117.5t-119 -81.5t-177.5 -29h-259zM256 574v-408h81q51 0 87.5 16.5t56 46t28.5 64t9 76.5q0 81 -36 137q-45 68 -144 68h-82z"/>
<glyph glyph-name="E" unicode="E" horiz-adv-x="528" d="M67 0v740h419v-166h-230v-115h223v-166h-223v-127h230v-166h-419z"/>
<glyph glyph-name="F" unicode="F" horiz-adv-x="506" d="M67 0v740h404v-166h-215v-126h207v-166h-207v-282h-189z"/>
<glyph glyph-name="G" unicode="G" horiz-adv-x="854" d="M801 492h-212q-16 28 -39 50q-53 46 -124 46q-78 0 -140 -56.5t-62 -158.5q0 -108 62 -165t141 -57q69 0 116 33q46 30 61 86h-221v151h439q9 -116 -34 -212q-26 -58 -69 -103t-93 -70.5t-100 -38t-98 -12.5q-167 0 -280 113.5t-113 274.5q0 164 115 272.5t281 108.5 q130 0 234.5 -76t135.5 -186z"/>
<glyph glyph-name="H" unicode="H" horiz-adv-x="754" d="M256 0h-189v740h189v-278h242v278h189v-740h-189v296h-242v-296z"/>
<glyph glyph-name="I" unicode="I" horiz-adv-x="323" d="M67 0v740h189v-740h-189z"/>
<glyph glyph-name="J" unicode="J" horiz-adv-x="578" d="M510 740v-447q0 -123 -24 -176q-26 -55 -82 -88q-67 -43 -149 -43q-8 0 -17.5 0.5t-32.5 4t-43.5 10.5t-46 21.5t-45 34.5t-36 52t-23.5 72q-5 30 -5 57h201q0 -6 2 -22q9 -64 55 -64q37 0 50 34q7 20 7 60v494h189z"/>
<glyph glyph-name="K" unicode="K" horiz-adv-x="707" d="M87 0v740h189v-333l211 333h198l-244 -368l269 -372h-230l-204 320v-320h-189z"/>
<glyph glyph-name="L" unicode="L" horiz-adv-x="487" d="M72 0v740h189v-574h219v-166h-408z"/>
<glyph glyph-name="M" unicode="M" horiz-adv-x="915" d="M241 0h-174v740h253l139 -477l135 477h254v-740h-174l6 554l-160 -554h-125l-160 554z"/>
<glyph glyph-name="N" unicode="N" horiz-adv-x="759" d="M230 740l284 -451l-4 451h181v-740h-164l-283 446l4 -446h-181v740h163z"/>
<glyph glyph-name="O" unicode="O" horiz-adv-x="851" d="M35 361v1q0 117 55.5 208t143.5 137.5t191 46.5q168 0 279.5 -113t111.5 -271t-111.5 -271t-280.5 -113q-112 0 -203 54.5t-138.5 139.5t-47.5 181zM224 372v-1q0 -89 56 -154t148 -65q93 0 146 68t53 149q0 82 -53.5 150.5t-147.5 68.5q-93 0 -147.5 -65.5t-54.5 -150.5 z"/>
<glyph glyph-name="P" unicode="P" horiz-adv-x="636" d="M67 740h242q96 0 145.5 -13.5t82.5 -40.5q87 -72 87 -196q0 -57 -21.5 -110.5t-56.5 -83.5q-41 -34 -87.5 -49t-128.5 -15h-74v-232h-189v740zM256 574v-176h69q48 0 73 11q45 20 45 78q0 56 -47 76q-26 11 -78 11h-62z"/>
<glyph glyph-name="Q" unicode="Q" horiz-adv-x="866" d="M855 137v-150q-28 -2 -47 -2q-119 0 -174 58q-94 -58 -208 -58q-115 0 -206 56.5t-138 142.5t-47 182q0 99 46.5 186.5t137 144.5t205.5 57t207 -55.5t140 -141t48 -181.5q0 -121 -61 -214q27 -25 97 -25zM425 588h-1q-66 0 -116 -37.5t-72 -105.5q-8 -25 -8 -30 q66 21 109 21q85 0 157 -50q59 -41 116 -104q20 38 20 94q0 95 -59.5 153.5t-145.5 58.5zM424 151h1q50 0 75 15q-28 37 -63 66q-52 44 -119 44q-42 0 -69 -11q22 -54 73 -84t102 -30z"/>
<glyph glyph-name="R" unicode="R" horiz-adv-x="653" d="M67 0v740h242q161 0 229 -53q90 -70 90 -202q0 -76 -37 -134q-33 -52 -96 -79l153 -272h-195l-193 357h31q83 0 114 20q18 12 30 36.5t12 54.5q0 58 -44 86q-32 20 -77 20h-70v-574h-189z"/>
<glyph glyph-name="S" unicode="S" horiz-adv-x="573" d="M25 245h188q0 -56 25 -78.5t52 -22.5q32 0 52 22t20 49t-24 42.5t-112 52.5q-6 3 -9 4q-24 10 -40 17t-45.5 26.5t-47.5 40t-33 55t-15 73.5q0 105 79 166.5t180 61.5q33 0 65 -6.5t65.5 -23.5t59 -42t42 -66t17.5 -92h-187q-2 15 -4.5 23t-9 21.5t-20.5 20.5t-34 7 q-26 0 -45.5 -16.5t-19.5 -41.5t24 -40.5t129 -62.5q98 -44 135.5 -93.5t37.5 -118.5q0 -47 -13 -87.5t-42 -75t-80.5 -54.5t-122.5 -20q-139 0 -205 71.5t-62 187.5z"/>
<glyph glyph-name="T" unicode="T" horiz-adv-x="499" d="M156 0v574h-146v166h480v-166h-145v-574h-189z"/>
<glyph glyph-name="U" unicode="U" horiz-adv-x="698" d="M65 740h189v-447q0 -58 13 -89q23 -52 83 -52q62 0 82 48q12 28 12 93v447h189v-447q0 -88 -18 -138t-56 -89q-78 -80 -207 -80q-140 0 -213 79q-45 49 -59.5 96.5t-14.5 131.5v447z"/>
<glyph glyph-name="V" unicode="V" horiz-adv-x="722" d="M263 0l-247 740h194l150 -519l151 519h195l-248 -740h-195z"/>
<glyph glyph-name="W" unicode="W" horiz-adv-x="981" d="M207 0l-191 740h192l101 -481l109 481h145l109 -483l101 483h191l-196 -740h-166l-113 479l-111 -479h-171z"/>
<glyph glyph-name="X" unicode="X" horiz-adv-x="759" d="M11 0l259 394l-229 346h214l127 -211l123 211h213l-226 -350l256 -390h-214l-160 262l-152 -262h-211z"/>
<glyph glyph-name="Y" unicode="Y" horiz-adv-x="647" d="M230 0v269l-221 471h205l110 -297l111 297h203l-219 -471v-269h-189z"/>
<glyph glyph-name="Z" unicode="Z" horiz-adv-x="499" d="M483 587l-236 -421h236v-166h-467v124l255 450h-255v166h467v-153z"/>
<glyph glyph-name="bracketleft" unicode="[" horiz-adv-x="473" d="M401 -80v-134h-306v954h306v-134h-146v-686h146z"/>
<glyph glyph-name="backslash" unicode="\" horiz-adv-x="593" d="M336 -100l-264 840h184l265 -840h-185z"/>
<glyph glyph-name="bracketright" unicode="]" horiz-adv-x="473" d="M72 -214v134h146v686h-146v134h306v-954h-306z"/>
<glyph glyph-name="asciicircum" unicode="^" horiz-adv-x="600" d="M43 375l174 365h166l174 -365h-180l-78 223l-77 -223h-179z"/>
<glyph glyph-name="underscore" unicode="_" horiz-adv-x="500" d="M500 -125h-500v50h500v-50z"/>
<glyph glyph-name="grave" unicode="`" horiz-adv-x="555" d="M162 839l242 -128l-46 -97l-247 108z"/>
<glyph glyph-name="a" unicode="a" horiz-adv-x="704" d="M643 555v-555h-166v60q-21 -39 -66.5 -59t-97.5 -20q-127 0 -203 86.5t-76 210.5q0 132 82 214t197 82q62 0 103 -23.5t61 -54.5v59h166zM200 276v-1q0 -48 35.5 -93.5t102.5 -45.5q78 0 116 62q20 31 23 71q3 37 -14 73q-36 77 -126 77q-66 0 -101.5 -44.5t-35.5 -98.5z "/>
<glyph glyph-name="b" unicode="b" horiz-adv-x="693" d="M60 0v740h166v-187v-42q59 63 161 63q46 0 92 -17t87.5 -50t67.5 -92t26 -134q0 -142 -83 -221t-197 -79q-55 0 -98.5 23t-62.5 55v-59h-159zM494 278v1q0 56 -38.5 98t-97.5 42q-63 0 -100.5 -42.5t-37.5 -97.5q0 -60 37.5 -101.5t97.5 -41.5q61 0 100 42.5t39 99.5z "/>
<glyph glyph-name="c" unicode="c" horiz-adv-x="652" d="M452 211h169q-23 -98 -102.5 -163.5t-188.5 -65.5q-125 0 -211 86.5t-86 210.5q0 123 84.5 209t208.5 86q110 0 191.5 -65t102.5 -168h-168q-37 78 -120 78q-57 3 -96 -39q-36 -41 -36 -102t36.5 -101t95.5 -40q81 0 120 74z"/>
<glyph glyph-name="d" unicode="d" horiz-adv-x="698" d="M638 740v-740h-158v60q-54 -78 -168 -78q-124 0 -201 85t-77 212q0 135 81.5 215t193.5 80q97 0 163 -66v60v172h166zM200 280v-1q0 -63 40 -102.5t99 -39.5q61 0 103 42t39 103q0 59 -41 98q-39 39 -99 39q-67 0 -104 -42.5t-37 -96.5z"/>
<glyph glyph-name="e" unicode="e" horiz-adv-x="646" d="M609 220h-413q5 -44 41.5 -71t86.5 -27q65 0 101 52h170q-40 -92 -113 -142q-70 -50 -158 -50q-120 0 -207 85.5t-87 208.5q0 119 83.5 208.5t207.5 89.5q127 0 210 -88q98 -105 78 -266zM198 346h248q-4 28 -35.5 58t-88.5 30t-88.5 -30t-35.5 -58z"/>
<glyph glyph-name="f" unicode="f" horiz-adv-x="314" d="M66 0v429h-62v126h62v24q0 47 14 80t34.5 51t54.5 28.5t63 13t70 2.5v-125q-22 0 -33.5 -1.5t-24 -14t-12.5 -37.5v-21h70v-126h-70v-429h-166z"/>
<glyph glyph-name="g" unicode="g" horiz-adv-x="693" d="M635 555v-488q0 -126 -33 -183q-35 -56 -109 -93.5t-172 -37.5q-69 0 -122.5 19t-85 49.5t-48 62.5t-21.5 64h192q15 -34 53 -48q20 -7 44 -7q54 0 94.5 34t40.5 101v33q-18 -31 -57 -55t-97 -24q-117 0 -198.5 81t-81.5 211q0 136 83 217.5t197 81.5q108 0 155 -70v52 h166zM200 280v-1q0 -64 39.5 -103t93.5 -39q59 0 97 38q36 38 39 96q0 64 -35 104q-35 43 -100 43q-55 0 -94.5 -39.5t-39.5 -98.5z"/>
<glyph glyph-name="h" unicode="h" horiz-adv-x="632" d="M60 0v740h166v-166v-70q42 70 145 70q117 0 165 -79q38 -61 38 -185v-310h-166v302q0 54 -17 81q-23 35 -72 35q-60 0 -81 -45q-12 -24 -12 -65v-308h-166z"/>
<glyph glyph-name="i" unicode="i" horiz-adv-x="286" d="M60 614v126h166v-126h-166zM60 0v555h166v-555h-166z"/>
<glyph glyph-name="j" unicode="j" horiz-adv-x="321" d="M87 614v126h166v-126h-166zM253 555v-543q0 -54 -7 -89t-27.5 -66.5t-63 -46t-108.5 -14.5h-41v126h22q17 0 28.5 5.5t17.5 12.5t9 20t3.5 21.5t0.5 24.5v549h166z"/>
<glyph glyph-name="k" unicode="k" horiz-adv-x="591" d="M66 0v740h166v-386l156 201h197l-209 -244l203 -311h-188l-159 267v-267h-166z"/>
<glyph glyph-name="l" unicode="l" horiz-adv-x="286" d="M60 0v740h166v-740h-166z"/>
<glyph glyph-name="m" unicode="m" horiz-adv-x="969" d="M60 0v555h155v-59q10 20 34 39q47 39 121 39q76 0 127 -53q19 -19 33 -46q19 30 40 48q56 51 136 51q92 0 146 -56q38 -41 49 -81t11 -134v-303h-166v295q0 53 -11 78q-17 45 -74 45q-60 0 -80 -46q-12 -25 -12 -69v-303h-166v302q0 44 -10 69q-20 47 -73 47 q-60 0 -82 -49q-12 -27 -12 -74v-295h-166z"/>
<glyph glyph-name="n" unicode="n" horiz-adv-x="632" d="M60 0v555h155v-59q11 15 19 24.5t26.5 24t45.5 22t62 7.5q53 0 93 -17t61 -41t33.5 -57.5t15.5 -58.5t3 -53v-347h-166v303q0 54 -18 84.5t-69 30.5q-56 0 -75.5 -32t-19.5 -84v-302h-166z"/>
<glyph glyph-name="o" unicode="o" horiz-adv-x="666" d="M34 278v1q0 52 19 103t54.5 94.5t94 70t131.5 26.5t131.5 -26.5t94 -70t54.5 -94.5t19 -104t-19 -104t-54.5 -94.5t-94 -70t-131.5 -26.5t-131.5 26.5t-94 70t-54.5 94.5t-19 104zM200 278v-1q0 -59 39 -99t94 -40t94 40t39 100t-39 100t-94 40t-94 -40t-39 -100z"/>
<glyph glyph-name="p" unicode="p" horiz-adv-x="697" d="M60 -185v740h156v-61q69 80 176 80q70 0 124.5 -28.5t85.5 -74.5t46 -97t15 -102q0 -122 -76.5 -206.5t-193.5 -84.5q-101 0 -167 69v-50v-185h-166zM497 277v1q0 54 -37.5 97.5t-101.5 43.5q-60 0 -100 -42q-39 -41 -39 -101q0 -59 40 -99q41 -41 99 -41 q62 0 100.5 42.5t38.5 98.5z"/>
<glyph glyph-name="q" unicode="q" horiz-adv-x="698" d="M638 555v-740h-166v185v57q-61 -75 -170 -75q-116 0 -192 82t-76 203q0 140 80.5 223.5t198.5 83.5q110 0 166 -80v61h159zM200 274v-1q0 -49 37 -92.5t103 -43.5q57 0 98 41q40 40 40 98q3 59 -39 101t-101 42q-63 0 -100.5 -43t-37.5 -102z"/>
<glyph glyph-name="r" unicode="r" horiz-adv-x="363" d="M59 0v555h156v-62q8 16 16 26t24 25t41.5 22.5t59.5 7.5v-167h-6q-65 0 -95 -25.5t-30 -83.5v-298h-166z"/>
<glyph glyph-name="s" unicode="s" horiz-adv-x="499" d="M459 399h-163q-1 7 -2 12t-5.5 13t-16 12.5t-28.5 4.5q-24 0 -35.5 -11.5t-11.5 -25.5q0 -30 85 -55q38 -10 57.5 -16.5t50 -21t46 -31t28 -43.5t12.5 -62q0 -89 -65 -141.5t-161 -52.5q-35 0 -69.5 8.5t-69 28t-58.5 57.5t-29 90h165q7 -51 63 -51q23 0 40.5 12t17.5 31 q0 8 -2 14.5t-8.5 12t-13.5 9.5t-21 10t-26 10t-34.5 12.5t-41.5 15.5q-59 19 -95.5 55.5t-36.5 89.5q0 84 63 136t152 52q32 0 63 -7.5t65 -25t57 -54t28 -88.5z"/>
<glyph glyph-name="t" unicode="t" horiz-adv-x="351" d="M93 0v429h-82v126h82v185h166v-185h80v-126h-80v-429h-166z"/>
<glyph glyph-name="u" unicode="u" horiz-adv-x="634" d="M574 555v-555h-155v59q-11 -15 -19 -24.5t-26.5 -24t-46 -22t-62.5 -7.5q-54 0 -93.5 17t-60.5 41t-34 57.5t-16 58.5t-3 53v347h166v-303q0 -54 18.5 -84.5t69.5 -30.5q56 0 76 32t20 84v302h166z"/>
<glyph glyph-name="v" unicode="v" horiz-adv-x="592" d="M575 555l-200 -555h-159l-199 555h172l107 -346l107 346h172z"/>
<glyph glyph-name="w" unicode="w" horiz-adv-x="850" d="M177 0l-170 555h172l85 -345l91 345h140l94 -345l83 345h171l-170 -555h-154l-95 359l-93 -359h-154z"/>
<glyph glyph-name="x" unicode="x" horiz-adv-x="630" d="M1 0l211 297l-187 258h199l90 -146l89 146h197l-187 -258l215 -297h-203l-111 172l-113 -172h-200z"/>
<glyph glyph-name="y" unicode="y" horiz-adv-x="574" d="M119 -185l88 213l-206 527h177l113 -322l106 322h176l-278 -740h-176z"/>
<glyph glyph-name="z" unicode="z" horiz-adv-x="444" d="M15 0v114l234 315h-234v126h413v-126l-217 -303h217v-126h-413z"/>
<glyph glyph-name="braceleft" unicode="{" horiz-adv-x="554" d="M483 740v-126h-55q-58 0 -58 -65v-209q0 -27 -11.5 -47.5t-27 -31.5t-31.5 -18t-27 -9l-11 -3q38 -2 72.5 -23t35.5 -69v-212q0 -65 58 -65h55v-126h-128q-64 0 -108.5 35t-44.5 103v212q0 19 -11 32.5t-29 19t-31.5 7.5t-25.5 2v172q12 0 25.5 2.5t31.5 8.5t29 20.5 t11 35.5v216q0 68 44.5 103t108.5 35h128z"/>
<glyph glyph-name="bar" unicode="|" horiz-adv-x="555" d="M186 750h183v-1000h-183v1000z"/>
<glyph glyph-name="braceright" unicode="}" horiz-adv-x="554" d="M71 614v126h128q64 0 108.5 -35t44.5 -103v-216q0 -21 11 -35.5t29 -20.5t31.5 -8.5t25.5 -2.5v-172q-12 0 -25.5 -2t-31.5 -7.5t-29 -19t-11 -32.5v-212q0 -68 -44.5 -103t-108.5 -35h-128v126h55q58 0 58 65v212q0 20 11.5 37.5t27 27.5t31.5 17t27 11l11 3 q-15 1 -25 2.5t-27.5 8.5t-28 17t-19 30t-8.5 47v209q0 65 -58 65h-55z"/>
<glyph glyph-name="asciitilde" unicode="~" horiz-adv-x="600" d="M497 377l36 -158q-22 -29 -34.5 -43.5t-38 -29.5t-54.5 -15q-42 0 -102 33q-62 35 -115 35q-30 0 -49.5 -18.5t-36.5 -50.5l-36 156q49 89 127 89q39 0 111 -32q7 -3 21.5 -9.5t23 -10t20 -8t20.5 -6.5t17 -2q19 0 37 12t26.5 23t26.5 35z"/>
<glyph glyph-name="uni00A0" unicode=" " horiz-adv-x="309"/>
<glyph glyph-name="exclamdown" unicode="¡" horiz-adv-x="333" d="M81 385v170h171v-170h-171zM81 -185v496h171v-496h-171z"/>
<glyph glyph-name="cent" unicode="¢" d="M378 31h-137v105q-51 17 -88.5 47t-55.5 64.5t-26.5 65t-8.5 60.5q0 47 17 92.5t59 88t103 61.5v105h131v-101q83 -23 131 -82.5t53 -116.5h-172q-22 40 -71 40q-35 0 -60.5 -24.5t-25.5 -60.5q0 -35 25 -59.5t61 -24.5q40 0 67 34h176q-12 -63 -58 -117.5t-120 -71.5 v-105z"/>
<glyph glyph-name="sterling" unicode="£" d="M413 417v-133h-77q33 -39 33 -69q0 -32 -39 -67h41q32 0 51 10q31 18 31 58q0 14 -7 36h161q11 -35 11 -64q0 -63 -46 -117q-60 -71 -173 -71h-355v148h49q43 0 67 10.5t24 43.5q0 10 -3 20t-8.5 20t-10 16t-12 15t-8.5 11h-128v133h48q-28 42 -28 94q0 93 73.5 168.5 t192.5 75.5q109 0 183.5 -67t78.5 -180h-174q-9 81 -85 81q-35 0 -57.5 -25.5t-22.5 -57.5q0 -48 34 -89h156z"/>
<glyph glyph-name="currency" unicode="¤" d="M537 38l-82 83q-66 -44 -146 -44q-77 0 -145 44l-83 -82l-81 80l85 85q-39 62 -39 136q0 78 42 143l-88 86l82 82l88 -88q63 40 139 40t137 -39l88 86l80 -81l-85 -85q43 -67 43 -144q0 -74 -38 -136l84 -84zM201 341v-1q0 -45 31.5 -77t76.5 -32q44 0 76 32t32 78 q0 45 -31.5 77.5t-76.5 32.5t-76.5 -32.5t-31.5 -77.5z"/>
<glyph glyph-name="yen" unicode="¥" d="M598 523v-138h-170l-26 -49v-30h196v-139h-197v-167h-186v167h-196v139h196v27l-26 52h-168v138h99l-119 217h200l109 -237l111 237h197l-117 -217h97z"/>
<glyph glyph-name="brokenbar" unicode="¦" horiz-adv-x="555" d="M186 675h183v-350h-183v350zM186 175h183v-350h-183v350z"/>
<glyph glyph-name="section" unicode="§" horiz-adv-x="670" d="M584 548h-163q-16 58 -87 58q-70 0 -70 -53q0 -33 59 -59l182 -82q25 -11 41.5 -21t38.5 -29.5t33.5 -49t11.5 -66.5q0 -36 -14.5 -68t-29 -48t-42.5 -42q15 -21 23.5 -34.5t18 -43.5t9.5 -63q0 -88 -65 -153t-185 -65q-25 0 -54 4.5t-68.5 19.5t-71.5 39.5t-56.5 69.5 t-29.5 103h164q14 -85 113 -85q46 0 68 20.5t22 44.5q0 27 -22.5 44t-65.5 36l-171 79q-27 12 -43 22t-40.5 31t-37 53t-12.5 74q0 91 95 161q-31 49 -31 111q0 67 37 113.5t89.5 65.5t112.5 19q109 0 173.5 -61t67.5 -145zM483 218v1q0 20 -16.5 35t-51.5 30l-185 83 q-39 -19 -39 -55q0 -18 10.5 -32t19 -19t23.5 -12l202 -93q37 24 37 62z"/>
<glyph glyph-name="dieresis" unicode="¨" horiz-adv-x="555" d="M240 795v-151h-159v151h159zM473 795v-151h-159v151h159z"/>
<glyph glyph-name="copyright" unicode="©" horiz-adv-x="800" d="M403 754h1q157 0 268 -113.5t111 -270.5q0 -159 -112 -271.5t-270 -112.5t-270.5 113t-112.5 271q0 157 111.5 270.5t273.5 113.5zM402 677h-1q-126 0 -213 -90.5t-87 -216.5q0 -128 88 -217.5t212 -89.5t211.5 89.5t87.5 217.5q0 126 -86.5 216.5t-211.5 90.5zM595 436 h-105q-18 68 -84 68q-57 0 -82 -40t-25 -92q0 -56 27 -93t80 -37q8 0 16.5 2t24 8.5t28 26.5t18.5 50h106q-7 -83 -60 -131t-137 -48q-96 0 -153 62.5t-57 160.5q0 92 57 157.5t156 65.5q84 0 135 -48.5t55 -111.5z"/>
<glyph glyph-name="ordfeminine" unicode="ª" horiz-adv-x="385" d="M341 744v-286h-99v29q-21 -39 -75 -39q-60 0 -100 44t-40 109q0 70 42 111.5t100 41.5q51 0 73 -39v29h99zM126 601v-1q0 -20 15 -39t43 -19q37 0 53 33q6 13 6 26q0 15 -5 28q-12 31 -54 31q-28 0 -43 -18.5t-15 -40.5z"/>
<glyph glyph-name="guillemotleft" unicode="«" horiz-adv-x="422" d="M24 284l98 182h116l-98 -182l98 -182h-116zM206 284l98 182h116l-98 -182l98 -182h-116z"/>
<glyph glyph-name="logicalnot" unicode="¬" horiz-adv-x="600" d="M46 445h508v-337h-160v177h-348v160z"/>
<glyph glyph-name="uni00AD" unicode="­" horiz-adv-x="281" d="M0 370h281v-163h-281v163z"/>
<glyph glyph-name="registered" unicode="®" horiz-adv-x="800" d="M403 754h1q157 0 268 -114t111 -270q0 -159 -112 -271.5t-270 -112.5t-270.5 113t-112.5 271q0 157 111.5 270.5t273.5 113.5zM402 677h-1q-126 0 -213 -90t-87 -217t88.5 -217t211.5 -90q124 0 211.5 89.5t87.5 217.5q0 125 -86.5 216t-211.5 91zM237 587h180 q67 0 111.5 -29.5t44.5 -90.5q0 -72 -69 -103q27 -11 42.5 -32.5t18.5 -66.5q6 -84 13 -104h-103q-4 7 -6.5 28.5t-5 46t-2.5 27.5q-2 12 -4.5 20t-9.5 19.5t-22.5 17t-39.5 5.5h-42v-164h-106v426zM400 514h-57v-120h51q73 0 73 65q0 55 -67 55z"/>
<glyph glyph-name="macron" unicode="¯" horiz-adv-x="555" d="M457 784v-126h-359v126h359z"/>
<glyph glyph-name="degree" unicode="°" horiz-adv-x="400" d="M343 569v-1q0 -59 -41.5 -100.5t-101.5 -41.5t-101.5 41.5t-41.5 101.5t41.5 101.5t101.5 41.5t101.5 -41.5t41.5 -101.5zM141 569v-1q0 -24 17.5 -42t41.5 -18t41.5 18t17.5 43q0 24 -17.5 42.5t-41.5 18.5t-41.5 -18.5t-17.5 -42.5z"/>
<glyph glyph-name="plusminus" unicode="±" horiz-adv-x="600" d="M220 420v136h160v-136h172v-160h-172v-130h-160v130h-172v160h172zM48 -82v160h504v-160h-504z"/>
<glyph glyph-name="twosuperior" unicode="²" horiz-adv-x="407" d="M376 402v-106h-341v97l135 111q65 53 65 96q0 42 -38 42q-44 0 -44 -68h-123q2 67 29 106q48 69 145 69q84 0 127 -34.5t43 -99.5q0 -45 -14 -74.5t-50 -60.5l-90 -78h156z"/>
<glyph glyph-name="threesuperior" unicode="³" horiz-adv-x="407" d="M22 433h129q3 -11 6 -17.5t14.5 -13.5t29.5 -7q48 0 48 43q0 15 -12 26.5t-37 11.5h-55v90h24q60 0 60 42q0 33 -32 33q-16 0 -24.5 -7t-9.5 -12.5t-2 -15.5h-126q0 43 18 73t46.5 44t53 20t48.5 6q68 0 110 -36.5t42 -86.5q0 -61 -57 -92q39 -13 61 -41.5t22 -64.5 q0 -58 -53 -99.5t-126 -41.5q-46 0 -87 16t-63 46q-23 31 -28 84z"/>
<glyph glyph-name="acute" unicode="´" horiz-adv-x="555" d="M151 719l240 129l53 -118l-246 -109z"/>
<glyph glyph-name="mu" unicode="µ" horiz-adv-x="634" d="M52 -190v745h166v-274q0 -62 20 -99q25 -45 78 -45t78 45q21 37 21 99v274h166v-555h-158v69q-36 -79 -105 -79q-67 0 -100 54v-48v-186h-166z"/>
<glyph glyph-name="paragraph" unicode="¶" horiz-adv-x="701" d="M205 -103v458q-95 0 -153.5 48.5t-58.5 140.5q0 196 254 196h360v-118h-49v-725h-128v725h-97v-725h-128z"/>
<glyph glyph-name="periodcentered" unicode="·" horiz-adv-x="314" d="M244 338v-170h-173v170h173z"/>
<glyph glyph-name="cedilla" unicode="¸" horiz-adv-x="555" d="M311 0l-29 -53q9 3 21 3q33 0 59 -23.5t26 -67.5q0 -41 -29.5 -72.5t-82.5 -31.5q-11 0 -23.5 2.5t-32 10.5t-34.5 29t-19 52h76l6 -13.5t9 -9.5t18 -5q17 0 26.5 10.5t9.5 27.5q0 15 -9.5 24.5t-24.5 9.5q-16 0 -27 -15l-65 35l42 87h83z"/>
<glyph glyph-name="onesuperior" unicode="¹" horiz-adv-x="407" d="M270 740v-444h-123v338h-78v106h201z"/>
<glyph glyph-name="ordmasculine" unicode="º" horiz-adv-x="385" d="M37 601v1q0 59 41 105.5t114 46.5t114 -47t41 -106t-41 -106t-114 -47t-114 47t-41 106zM136 601v-1q0 -24 16.5 -41t39.5 -17t39.5 17t16.5 42t-16.5 42t-39.5 17t-39.5 -17t-16.5 -42z"/>
<glyph glyph-name="guillemotright" unicode="»" horiz-adv-x="422" d="M300 466l98 -182l-98 -182h-116l98 182l-98 182h116zM118 466l98 -182l-98 -182h-116l98 182l-98 182h116z"/>
<glyph glyph-name="onequarter" unicode="¼" horiz-adv-x="900" d="M635 740l-311 -740h-136l310 740h137zM799 444v-273h52v-94h-52v-77h-123v77h-209v86l214 281h118zM249 740v-444h-123v338h-78v106h201zM678 288l-79 -117h79v117z"/>
<glyph glyph-name="onehalf" unicode="½" horiz-adv-x="920" d="M249 740v-444h-123v338h-78v106h201zM635 740l-311 -740h-136l310 740h137zM872 106v-106h-341v97l135 111q65 53 65 96q0 42 -38 42q-44 0 -44 -68h-123q2 67 29 106q48 69 145 69q84 0 127 -34.5t43 -99.5q0 -45 -14 -74.5t-50 -60.5l-90 -78h156z"/>
<glyph glyph-name="threequarters" unicode="¾" horiz-adv-x="1000" d="M786 292l-84 -121h84v121zM748 740l-311 -740h-136l310 740h137zM907 444v-273h52v-94h-52v-77h-123v77h-209v86l214 281h118zM41 433h129q3 -11 6 -17.5t14.5 -13.5t29.5 -7q48 0 48 43q0 15 -12 26.5t-37 11.5h-55v90h24q60 0 60 42q0 33 -32 33q-16 0 -24.5 -7 t-9.5 -12.5t-2 -15.5h-126q0 43 18 73t46.5 44t53 20t48.5 6q68 0 110 -36.5t42 -86.5q0 -61 -57 -92q39 -13 61 -41.5t22 -64.5q0 -58 -53 -99.5t-126 -41.5q-46 0 -87 16t-63 46q-23 31 -28 84z"/>
<glyph glyph-name="questiondown" unicode="¿" horiz-adv-x="592" d="M231 385v170h174v-170h-174zM231 319h174q-1 -49 -24.5 -86t-79.5 -90q-68 -67 -68 -110q0 -62 58 -62q64 0 68 75q1 7 1 21h183q1 -9 1 -18q0 -108 -74 -178.5t-189 -70.5q-110 0 -175 65.5t-65 146.5q0 43 19.5 82.5t38 59.5t55.5 54q46 43 60.5 64.5t16.5 46.5z"/>
<glyph glyph-name="Agrave" unicode="À" horiz-adv-x="758" d="M248 107l-34 -107h-205l293 740h163l284 -740h-207l-35 107h-259zM458 257l-83 258l-80 -258h163zM264 984l242 -128l-46 -97l-247 108z"/>
<glyph glyph-name="Aacute" unicode="Á" horiz-adv-x="758" d="M248 107l-34 -107h-205l293 740h163l284 -740h-207l-35 107h-259zM458 257l-83 258l-80 -258h163zM253 864l240 129l53 -118l-246 -109z"/>
<glyph glyph-name="Acircumflex" unicode="Â" horiz-adv-x="758" d="M248 107l-34 -107h-205l293 740h163l284 -740h-207l-35 107h-259zM458 257l-83 258l-80 -258h163zM436 951l160 -166h-160l-56 57l-56 -57h-162l166 166h108z"/>
<glyph glyph-name="Atilde" unicode="Ã" horiz-adv-x="758" d="M248 107l-34 -107h-205l293 740h163l284 -740h-207l-35 107h-259zM458 257l-83 258l-80 -258h163zM527 953l55 -110q-59 -37 -113 -37q-12 0 -81 13q-59 13 -79 13q-38 0 -77 -24l-55 113q62 35 110 35q27 0 81 -12q50 -13 81 -13q49 0 78 22z"/>
<glyph glyph-name="Adieresis" unicode="Ä" horiz-adv-x="758" d="M248 107l-34 -107h-205l293 740h163l284 -740h-207l-35 107h-259zM458 257l-83 258l-80 -258h163zM342 940v-151h-159v151h159zM575 940v-151h-159v151h159z"/>
<glyph glyph-name="Aring" unicode="Å" horiz-adv-x="758" d="M248 107l-34 -107h-205l293 740h163l284 -740h-207l-35 107h-259zM458 257l-83 258l-80 -258h163zM379 1017h1q52 0 88.5 -37t36.5 -89t-37 -89t-89 -37t-89 37t-37 89t37 89t89 37zM379 936h-1q-18 0 -30.5 -13.5t-12.5 -31.5t13 -30.5t31 -12.5t31 12.5t13 31.5 q0 18 -12.5 31t-31.5 13z"/>
<glyph glyph-name="AE" unicode="Æ" horiz-adv-x="975" d="M-10 0l514 740h421v-166h-228v-115h221v-166h-221v-127h228v-166h-411v124h-215l-80 -124h-229zM376 270h138v201z"/>
<glyph glyph-name="Ccedilla" unicode="Ç" horiz-adv-x="832" d="M444 -13l-22 -40q9 3 21 3q30 0 57.5 -23.5t27.5 -67.5q0 -41 -29.5 -72.5t-82.5 -31.5q-11 0 -23.5 2.5t-32 10.5t-34.5 29t-19 52h76l6 -13.5t9 -9.5t18 -5q17 0 26.5 10.5t9.5 27.5q0 15 -9.5 24.5t-24.5 9.5q-16 0 -27 -15l-65 35l38 78q-145 21 -236 130.5 t-91 249.5q0 96 45.5 182.5t136 143.5t206.5 57q82 0 153 -29.5t115.5 -75t72 -95t35.5 -95.5h-198q-19 51 -64.5 90t-114.5 39q-90 0 -144 -65.5t-54 -150.5q0 -88 55 -154t144 -66q120 0 178 125h198q-31 -126 -129 -205.5t-228 -84.5z"/>
<glyph glyph-name="Egrave" unicode="È" horiz-adv-x="528" d="M67 0v740h419v-166h-230v-115h223v-166h-223v-127h230v-166h-419zM149 1004l242 -128l-46 -97l-247 108z"/>
<glyph glyph-name="Eacute" unicode="É" horiz-adv-x="528" d="M67 0v740h419v-166h-230v-115h223v-166h-223v-127h230v-166h-419zM138 884l240 129l53 -118l-246 -109z"/>
<glyph glyph-name="Ecircumflex" unicode="Ê" horiz-adv-x="528" d="M67 0v740h419v-166h-230v-115h223v-166h-223v-127h230v-166h-419zM321 971l160 -166h-160l-56 57l-56 -57h-162l166 166h108z"/>
<glyph glyph-name="Edieresis" unicode="Ë" horiz-adv-x="528" d="M67 0v740h419v-166h-230v-115h223v-166h-223v-127h230v-166h-419zM227 960v-151h-159v151h159zM460 960v-151h-159v151h159z"/>
<glyph glyph-name="Igrave" unicode="Ì" horiz-adv-x="323" d="M67 0v740h189v-740h-189zM21 1004l242 -128l-46 -97l-247 108z"/>
<glyph glyph-name="Iacute" unicode="Í" horiz-adv-x="323" d="M67 0v740h189v-740h-189zM60 884l240 129l53 -118l-246 -109z"/>
<glyph glyph-name="Icircumflex" unicode="Î" horiz-adv-x="323" d="M67 0v740h189v-740h-189zM218 971l160 -166h-160l-56 57l-56 -57h-162l166 166h108z"/>
<glyph glyph-name="Idieresis" unicode="Ï" horiz-adv-x="323" d="M67 0v740h189v-740h-189zM124 960v-151h-159v151h159zM357 960v-151h-159v151h159z"/>
<glyph glyph-name="Eth" unicode="Ð" horiz-adv-x="742" d="M67 462v278h249q36 0 57.5 -1t62.5 -8t71.5 -20.5t67 -41.5t64.5 -67q68 -93 68 -230q0 -161 -93 -266.5t-268 -105.5h-279v296h-67v166h67zM256 574v-112h108v-166h-108v-130h81q51 0 87.5 16.5t56 46t28.5 64t9 76.5q0 81 -36 137q-45 68 -144 68h-82z"/>
<glyph glyph-name="Ntilde" unicode="Ñ" horiz-adv-x="759" d="M230 740l284 -451l-4 451h181v-740h-164l-283 446l4 -446h-181v740h163zM527 953l55 -110q-59 -37 -113 -37q-12 0 -81 13q-59 13 -79 13q-38 0 -77 -24l-55 113q62 35 110 35q27 0 81 -12q50 -13 81 -13q49 0 78 22z"/>
<glyph glyph-name="Ograve" unicode="Ò" horiz-adv-x="851" d="M35 361v1q0 117 55.5 208t143.5 137.5t191 46.5q168 0 279.5 -113t111.5 -271t-111.5 -271t-280.5 -113q-112 0 -203 54.5t-138.5 139.5t-47.5 181zM224 372v-1q0 -89 56 -154t148 -65q93 0 146 68t53 149q0 82 -53.5 150.5t-147.5 68.5q-93 0 -147.5 -65.5t-54.5 -150.5 zM310 1004l242 -128l-46 -97l-247 108z"/>
<glyph glyph-name="Oacute" unicode="Ó" horiz-adv-x="851" d="M35 361v1q0 117 55.5 208t143.5 137.5t191 46.5q168 0 279.5 -113t111.5 -271t-111.5 -271t-280.5 -113q-112 0 -203 54.5t-138.5 139.5t-47.5 181zM224 372v-1q0 -89 56 -154t148 -65q93 0 146 68t53 149q0 82 -53.5 150.5t-147.5 68.5q-93 0 -147.5 -65.5t-54.5 -150.5 zM299 884l240 129l53 -118l-246 -109z"/>
<glyph glyph-name="Ocircumflex" unicode="Ô" horiz-adv-x="851" d="M35 361v1q0 117 55.5 208t143.5 137.5t191 46.5q168 0 279.5 -113t111.5 -271t-111.5 -271t-280.5 -113q-112 0 -203 54.5t-138.5 139.5t-47.5 181zM224 372v-1q0 -89 56 -154t148 -65q93 0 146 68t53 149q0 82 -53.5 150.5t-147.5 68.5q-93 0 -147.5 -65.5t-54.5 -150.5 zM482 971l160 -166h-160l-56 57l-56 -57h-162l166 166h108z"/>
<glyph glyph-name="Otilde" unicode="Õ" horiz-adv-x="851" d="M35 361v1q0 117 55.5 208t143.5 137.5t191 46.5q168 0 279.5 -113t111.5 -271t-111.5 -271t-280.5 -113q-112 0 -203 54.5t-138.5 139.5t-47.5 181zM224 372v-1q0 -89 56 -154t148 -65q93 0 146 68t53 149q0 82 -53.5 150.5t-147.5 68.5q-93 0 -147.5 -65.5t-54.5 -150.5 zM573 953l55 -110q-59 -37 -113 -37q-12 0 -81 13q-59 13 -79 13q-38 0 -77 -24l-55 113q62 35 110 35q27 0 81 -12q50 -13 81 -13q49 0 78 22z"/>
<glyph glyph-name="Odieresis" unicode="Ö" horiz-adv-x="851" d="M35 361v1q0 117 55.5 208t143.5 137.5t191 46.5q168 0 279.5 -113t111.5 -271t-111.5 -271t-280.5 -113q-112 0 -203 54.5t-138.5 139.5t-47.5 181zM224 372v-1q0 -89 56 -154t148 -65q93 0 146 68t53 149q0 82 -53.5 150.5t-147.5 68.5q-93 0 -147.5 -65.5t-54.5 -150.5 zM388 960v-151h-159v151h159zM621 960v-151h-159v151h159z"/>
<glyph glyph-name="multiply" unicode="×" horiz-adv-x="600" d="M169 0l-113 113l130 130l-130 130l113 113l130 -130l131 131l114 -114l-131 -130l129 -130l-113 -113l-129 129z"/>
<glyph glyph-name="Oslash" unicode="Ø" horiz-adv-x="851" d="M593 719l30 41h182l-94 -126q105 -114 105 -264q0 -157 -111.5 -270.5t-280.5 -113.5q-85 0 -167 35l-32 -41h-182l95 127q-103 111 -103 263q0 162 112.5 273t278.5 111q92 0 167 -35zM251 258l237 320q-25 10 -62 10q-95 0 -148.5 -66.5t-53.5 -148.5q0 -65 27 -115z M598 484l-237 -321q30 -11 66 -11q49 0 89 20.5t63 53.5t35.5 70t12.5 73q0 61 -29 115z"/>
<glyph glyph-name="Ugrave" unicode="Ù" horiz-adv-x="698" d="M65 740h189v-447q0 -58 13 -89q23 -52 83 -52q62 0 82 48q12 28 12 93v447h189v-447q0 -88 -18 -138t-56 -89q-78 -80 -207 -80q-140 0 -213 79q-45 49 -59.5 96.5t-14.5 131.5v447zM199 1004l242 -128l-46 -97l-247 108z"/>
<glyph glyph-name="Uacute" unicode="Ú" horiz-adv-x="698" d="M65 740h189v-447q0 -58 13 -89q23 -52 83 -52q62 0 82 48q12 28 12 93v447h189v-447q0 -88 -18 -138t-56 -89q-78 -80 -207 -80q-140 0 -213 79q-45 49 -59.5 96.5t-14.5 131.5v447zM258 884l240 129l53 -118l-246 -109z"/>
<glyph glyph-name="Ucircumflex" unicode="Û" horiz-adv-x="698" d="M65 740h189v-447q0 -58 13 -89q23 -52 83 -52q62 0 82 48q12 28 12 93v447h189v-447q0 -88 -18 -138t-56 -89q-78 -80 -207 -80q-140 0 -213 79q-45 49 -59.5 96.5t-14.5 131.5v447zM406 971l160 -166h-160l-56 57l-56 -57h-162l166 166h108z"/>
<glyph glyph-name="Udieresis" unicode="Ü" horiz-adv-x="698" d="M65 740h189v-447q0 -58 13 -89q23 -52 83 -52q62 0 82 48q12 28 12 93v447h189v-447q0 -88 -18 -138t-56 -89q-78 -80 -207 -80q-140 0 -213 79q-45 49 -59.5 96.5t-14.5 131.5v447zM312 960v-151h-159v151h159zM545 960v-151h-159v151h159z"/>
<glyph glyph-name="Yacute" unicode="Ý" horiz-adv-x="647" d="M230 0v269l-221 471h205l110 -297l111 297h203l-219 -471v-269h-189zM232 884l240 129l53 -118l-246 -109z"/>
<glyph glyph-name="Thorn" unicode="Þ" horiz-adv-x="636" d="M67 0v740h189v-97l53 1q96 0 145.5 -13.5t82.5 -40.5q87 -72 87 -196q0 -57 -21.5 -110.5t-56.5 -83.5q-41 -34 -87.5 -49t-128.5 -15h-74v-136h-189zM256 478v-176h69q48 0 73 11q45 20 45 78q0 56 -47 76q-26 11 -78 11h-62z"/>
<glyph glyph-name="germandbls" unicode="ß" horiz-adv-x="694" d="M58 0v427q0 92 13 142t51 93q42 47 101 72t118 25q102 0 168.5 -63t66.5 -146q0 -82 -71 -129q64 -16 109.5 -69t45.5 -124q0 -96 -72.5 -171t-185.5 -75q-46 0 -84 15.5t-54 29t-40 37.5v-64h-166zM224 474v-265h93q4 -13 8 -22t13 -22.5t25.5 -20.5t39.5 -7 q41 0 66 27.5t25 62.5q0 39 -20 60q-31 33 -117 33h-65v125h34q38 0 61 21t23 55q0 37 -24.5 60t-63.5 23q-62 0 -86 -56q-12 -29 -12 -74z"/>
<glyph glyph-name="agrave" unicode="à" horiz-adv-x="704" d="M643 555v-555h-166v60q-21 -39 -66.5 -59t-97.5 -20q-127 0 -203 86.5t-76 210.5q0 132 82 214t197 82q62 0 103 -23.5t61 -54.5v59h166zM200 276v-1q0 -48 35.5 -93.5t102.5 -45.5q78 0 116 62q20 31 23 71q3 37 -14 73q-36 77 -126 77q-66 0 -101.5 -44.5t-35.5 -98.5z M222 839l242 -128l-46 -97l-247 108z"/>
<glyph glyph-name="aacute" unicode="á" horiz-adv-x="704" d="M643 555v-555h-166v60q-21 -39 -66.5 -59t-97.5 -20q-127 0 -203 86.5t-76 210.5q0 132 82 214t197 82q62 0 103 -23.5t61 -54.5v59h166zM200 276v-1q0 -48 35.5 -93.5t102.5 -45.5q78 0 116 62q20 31 23 71q3 37 -14 73q-36 77 -126 77q-66 0 -101.5 -44.5t-35.5 -98.5z M226 719l240 129l53 -118l-246 -109z"/>
<glyph glyph-name="acircumflex" unicode="â" horiz-adv-x="704" d="M643 555v-555h-166v60q-21 -39 -66.5 -59t-97.5 -20q-127 0 -203 86.5t-76 210.5q0 132 82 214t197 82q62 0 103 -23.5t61 -54.5v59h166zM200 276v-1q0 -48 35.5 -93.5t102.5 -45.5q78 0 116 62q20 31 23 71q3 37 -14 73q-36 77 -126 77q-66 0 -101.5 -44.5t-35.5 -98.5z M394 806l160 -166h-160l-56 57l-56 -57h-162l166 166h108z"/>
<glyph glyph-name="atilde" unicode="ã" horiz-adv-x="704" d="M643 555v-555h-166v60q-21 -39 -66.5 -59t-97.5 -20q-127 0 -203 86.5t-76 210.5q0 132 82 214t197 82q62 0 103 -23.5t61 -54.5v59h166zM200 276v-1q0 -48 35.5 -93.5t102.5 -45.5q78 0 116 62q20 31 23 71q3 37 -14 73q-36 77 -126 77q-66 0 -101.5 -44.5t-35.5 -98.5z M490 788l55 -110q-59 -37 -113 -37q-12 0 -81 13q-59 13 -79 13q-38 0 -77 -24l-55 113q62 35 110 35q27 0 81 -12q50 -13 81 -13q49 0 78 22z"/>
<glyph glyph-name="adieresis" unicode="ä" horiz-adv-x="704" d="M643 555v-555h-166v60q-21 -39 -66.5 -59t-97.5 -20q-127 0 -203 86.5t-76 210.5q0 132 82 214t197 82q62 0 103 -23.5t61 -54.5v59h166zM200 276v-1q0 -48 35.5 -93.5t102.5 -45.5q78 0 116 62q20 31 23 71q3 37 -14 73q-36 77 -126 77q-66 0 -101.5 -44.5t-35.5 -98.5z M300 795v-151h-159v151h159zM533 795v-151h-159v151h159z"/>
<glyph glyph-name="aring" unicode="å" horiz-adv-x="704" d="M643 555v-555h-166v60q-21 -39 -66.5 -59t-97.5 -20q-127 0 -203 86.5t-76 210.5q0 132 82 214t197 82q62 0 103 -23.5t61 -54.5v59h166zM200 276v-1q0 -48 35.5 -93.5t102.5 -45.5q78 0 116 62q20 31 23 71q3 37 -14 73q-36 77 -126 77q-66 0 -101.5 -44.5t-35.5 -98.5z M332 852h1q52 0 88.5 -37t36.5 -89t-37 -89t-89 -37t-89 37t-37 89t37 89t89 37zM332 771h-1q-18 0 -30.5 -13.5t-12.5 -31.5t13 -30.5t31 -12.5t31 12.5t13 31.5q0 18 -12.5 31t-31.5 13z"/>
<glyph glyph-name="ae" unicode="æ" horiz-adv-x="1091" d="M1055 226h-417q8 -55 46 -79.5t81 -24.5q27 0 50 9.5t33.5 18.5t24.5 25h167q-37 -87 -96 -135q-69 -58 -167 -58q-47 0 -86.5 20t-63.5 53v-55h-151v55q-49 -73 -160 -73q-66 0 -121.5 28t-89.5 72t-52.5 95t-18.5 100q0 126 80.5 211.5t205.5 85.5q48 0 94 -20.5 t62 -52.5v54h151v-53q54 72 154 72q110 0 190 -80q45 -44 69.5 -113t14.5 -155zM200 281v-1q0 -63 40.5 -103t100.5 -40q57 0 96 40.5t39 98.5q0 62 -37 102q-39 41 -104 41q-67 0 -101 -47t-34 -91zM642 336h253q-27 97 -124 97q-58 0 -95 -35q-28 -28 -34 -62z"/>
<glyph glyph-name="ccedilla" unicode="ç" horiz-adv-x="652" d="M349 -16l-20 -37q9 3 21 3q30 0 57.5 -23.5t27.5 -67.5q0 -41 -29.5 -72.5t-82.5 -31.5q-11 0 -23.5 2.5t-32 10.5t-34.5 29t-19 52h76l6 -13.5t9 -9.5t18 -5q17 0 26.5 10.5t9.5 27.5q0 15 -9.5 24.5t-24.5 9.5q-16 0 -27 -15l-65 35l36 75q-103 21 -169.5 102.5 t-66.5 188.5q0 123 84.5 209t208.5 86q110 0 191.5 -65t102.5 -168h-168q-39 74 -120 74q-57 3 -96 -38q-36 -39 -36 -99q0 -61 36.5 -101t95.5 -40q81 0 120 74h169q-22 -94 -96 -158t-176 -69z"/>
<glyph glyph-name="egrave" unicode="è" horiz-adv-x="646" d="M609 220h-413q5 -44 41.5 -71t86.5 -27q65 0 101 52h170q-40 -92 -113 -142q-70 -50 -158 -50q-120 0 -207 85.5t-87 208.5q0 119 83.5 208.5t207.5 89.5q127 0 210 -88q98 -105 78 -266zM198 346h248q-4 28 -35.5 58t-88.5 30t-88.5 -30t-35.5 -58zM208 839l242 -128 l-46 -97l-247 108z"/>
<glyph glyph-name="eacute" unicode="é" horiz-adv-x="646" d="M609 220h-413q5 -44 41.5 -71t86.5 -27q65 0 101 52h170q-40 -92 -113 -142q-70 -50 -158 -50q-120 0 -207 85.5t-87 208.5q0 119 83.5 208.5t207.5 89.5q127 0 210 -88q98 -105 78 -266zM198 346h248q-4 28 -35.5 58t-88.5 30t-88.5 -30t-35.5 -58zM197 719l240 129 l53 -118l-246 -109z"/>
<glyph glyph-name="ecircumflex" unicode="ê" horiz-adv-x="646" d="M609 220h-413q5 -44 41.5 -71t86.5 -27q65 0 101 52h170q-40 -92 -113 -142q-70 -50 -158 -50q-120 0 -207 85.5t-87 208.5q0 119 83.5 208.5t207.5 89.5q127 0 210 -88q98 -105 78 -266zM198 346h248q-4 28 -35.5 58t-88.5 30t-88.5 -30t-35.5 -58zM380 806l160 -166 h-160l-56 57l-56 -57h-162l166 166h108z"/>
<glyph glyph-name="edieresis" unicode="ë" horiz-adv-x="646" d="M609 220h-413q5 -44 41.5 -71t86.5 -27q65 0 101 52h170q-40 -92 -113 -142q-70 -50 -158 -50q-120 0 -207 85.5t-87 208.5q0 119 83.5 208.5t207.5 89.5q127 0 210 -88q98 -105 78 -266zM198 346h248q-4 28 -35.5 58t-88.5 30t-88.5 -30t-35.5 -58zM286 795v-151h-159 v151h159zM519 795v-151h-159v151h159z"/>
<glyph glyph-name="igrave" unicode="ì" horiz-adv-x="286" d="M60 0v555h166v-555h-166zM7 839l242 -128l-46 -97l-247 108z"/>
<glyph glyph-name="iacute" unicode="í" horiz-adv-x="286" d="M60 0v555h166v-555h-166zM36 719l240 129l53 -118l-246 -109z"/>
<glyph glyph-name="icircumflex" unicode="î" horiz-adv-x="286" d="M60 0v555h166v-555h-166zM200 806l160 -166h-160l-56 57l-56 -57h-162l166 166h108z"/>
<glyph glyph-name="idieresis" unicode="ï" horiz-adv-x="286" d="M60 0v555h166v-555h-166zM106 795v-151h-159v151h159zM339 795v-151h-159v151h159z"/>
<glyph glyph-name="eth" unicode="ð" horiz-adv-x="666" d="M335 600l-235 -50v105l117 20q-20 11 -92 35l170 46q40 -14 95 -44l210 44v-105l-100 -16q51 -47 84 -112q48 -91 48 -208q0 -145 -82 -238.5t-217 -93.5q-127 0 -213 81.5t-86 211.5q0 134 77 211.5t179 77.5q68 0 117 -44q-6 15 -19 32q-25 30 -53 47zM200 279v-1 q0 -56 35 -98t100 -42t98 44.5t33 96.5q0 53 -33.5 97t-94.5 44q-69 0 -103.5 -42.5t-34.5 -98.5z"/>
<glyph glyph-name="ntilde" unicode="ñ" horiz-adv-x="632" d="M60 0v555h155v-59q11 15 19 24.5t26.5 24t45.5 22t62 7.5q53 0 93 -17t61 -41t33.5 -57.5t15.5 -58.5t3 -53v-347h-166v303q0 54 -18 84.5t-69 30.5q-56 0 -75.5 -32t-19.5 -84v-302h-166zM464 788l55 -110q-59 -37 -113 -37q-12 0 -81 13q-59 13 -79 13q-38 0 -77 -24 l-55 113q63 35 110 35q27 0 81 -12q50 -13 81 -13q49 0 78 22z"/>
<glyph glyph-name="ograve" unicode="ò" horiz-adv-x="666" d="M34 278v1q0 52 19 103t54.5 94.5t94 70t131.5 26.5t131.5 -26.5t94 -70t54.5 -94.5t19 -104t-19 -104t-54.5 -94.5t-94 -70t-131.5 -26.5t-131.5 26.5t-94 70t-54.5 94.5t-19 104zM200 278v-1q0 -59 39 -99t94 -40t94 40t39 100t-39 100t-94 40t-94 -40t-39 -100z M218 839l242 -128l-46 -97l-247 108z"/>
<glyph glyph-name="oacute" unicode="ó" horiz-adv-x="666" d="M34 278v1q0 52 19 103t54.5 94.5t94 70t131.5 26.5t131.5 -26.5t94 -70t54.5 -94.5t19 -104t-19 -104t-54.5 -94.5t-94 -70t-131.5 -26.5t-131.5 26.5t-94 70t-54.5 94.5t-19 104zM200 278v-1q0 -59 39 -99t94 -40t94 40t39 100t-39 100t-94 40t-94 -40t-39 -100z M207 719l240 129l53 -118l-246 -109z"/>
<glyph glyph-name="ocircumflex" unicode="ô" horiz-adv-x="666" d="M34 278v1q0 52 19 103t54.5 94.5t94 70t131.5 26.5t131.5 -26.5t94 -70t54.5 -94.5t19 -104t-19 -104t-54.5 -94.5t-94 -70t-131.5 -26.5t-131.5 26.5t-94 70t-54.5 94.5t-19 104zM200 278v-1q0 -59 39 -99t94 -40t94 40t39 100t-39 100t-94 40t-94 -40t-39 -100z M390 806l160 -166h-160l-56 57l-56 -57h-162l166 166h108z"/>
<glyph glyph-name="otilde" unicode="õ" horiz-adv-x="666" d="M34 278v1q0 52 19 103t54.5 94.5t94 70t131.5 26.5t131.5 -26.5t94 -70t54.5 -94.5t19 -104t-19 -104t-54.5 -94.5t-94 -70t-131.5 -26.5t-131.5 26.5t-94 70t-54.5 94.5t-19 104zM200 278v-1q0 -59 39 -99t94 -40t94 40t39 100t-39 100t-94 40t-94 -40t-39 -100z M481 788l55 -110q-59 -37 -113 -37q-12 0 -81 13q-59 13 -79 13q-38 0 -77 -24l-55 113q63 35 110 35q27 0 81 -12q50 -13 81 -13q49 0 78 22z"/>
<glyph glyph-name="odieresis" unicode="ö" horiz-adv-x="666" d="M34 278v1q0 52 19 103t54.5 94.5t94 70t131.5 26.5t131.5 -26.5t94 -70t54.5 -94.5t19 -104t-19 -104t-54.5 -94.5t-94 -70t-131.5 -26.5t-131.5 26.5t-94 70t-54.5 94.5t-19 104zM200 278v-1q0 -59 39 -99t94 -40t94 40t39 100t-39 100t-94 40t-94 -40t-39 -100z M296 795v-151h-159v151h159zM529 795v-151h-159v151h159z"/>
<glyph glyph-name="divide" unicode="÷" horiz-adv-x="600" d="M378 563v-160h-157v160h157zM48 173v160h504v-160h-504zM378 103v-160h-157v160h157z"/>
<glyph glyph-name="oslash" unicode="ø" horiz-adv-x="666" d="M482 588h164l-85 -115q71 -85 71 -195q0 -54 -19 -105.5t-55 -94.5t-94.5 -69.5t-129.5 -26.5q-66 0 -121 23l-29 -38h-164l84 112q-70 80 -70 197q0 73 31.5 139t102 112t166.5 46q67 0 121 -23zM213 216l148 199q-18 3 -27 3q-56 0 -95 -40.5t-39 -99.5q0 -33 13 -62z M454 336l-146 -196q18 -3 25 -3q60 0 96.5 42t36.5 99q0 28 -12 58z"/>
<glyph glyph-name="ugrave" unicode="ù" horiz-adv-x="634" d="M574 555v-555h-155v59q-11 -15 -19 -24.5t-26.5 -24t-46 -22t-62.5 -7.5q-54 0 -93.5 17t-60.5 41t-34 57.5t-16 58.5t-3 53v347h166v-303q0 -54 18.5 -84.5t69.5 -30.5q56 0 76 32t20 84v302h166zM167 839l242 -128l-46 -97l-247 108z"/>
<glyph glyph-name="uacute" unicode="ú" horiz-adv-x="634" d="M574 555v-555h-155v59q-11 -15 -19 -24.5t-26.5 -24t-46 -22t-62.5 -7.5q-54 0 -93.5 17t-60.5 41t-34 57.5t-16 58.5t-3 53v347h166v-303q0 -54 18.5 -84.5t69.5 -30.5q56 0 76 32t20 84v302h166zM226 719l240 129l53 -118l-246 -109z"/>
<glyph glyph-name="ucircumflex" unicode="û" horiz-adv-x="634" d="M574 555v-555h-155v59q-11 -15 -19 -24.5t-26.5 -24t-46 -22t-62.5 -7.5q-54 0 -93.5 17t-60.5 41t-34 57.5t-16 58.5t-3 53v347h166v-303q0 -54 18.5 -84.5t69.5 -30.5q56 0 76 32t20 84v302h166zM374 806l160 -166h-160l-56 57l-56 -57h-162l166 166h108z"/>
<glyph glyph-name="udieresis" unicode="ü" horiz-adv-x="634" d="M574 555v-555h-155v59q-11 -15 -19 -24.5t-26.5 -24t-46 -22t-62.5 -7.5q-54 0 -93.5 17t-60.5 41t-34 57.5t-16 58.5t-3 53v347h166v-303q0 -54 18.5 -84.5t69.5 -30.5q56 0 76 32t20 84v302h166zM280 795v-151h-159v151h159zM513 795v-151h-159v151h159z"/>
<glyph glyph-name="yacute" unicode="ý" horiz-adv-x="574" d="M119 -185l88 213l-206 527h177l113 -322l106 322h176l-278 -740h-176zM196 719l240 129l53 -118l-246 -109z"/>
<glyph glyph-name="thorn" unicode="þ" horiz-adv-x="695" d="M59 -185v925h166v-178v-56q20 19 34.5 30t50.5 24t80 13q57 0 104 -19t78 -49.5t52 -71t30 -81t9 -80.5q0 -122 -77 -206.5t-194 -84.5q-101 0 -167 69v-70v-165h-166zM497 277v1q0 54 -37.5 97t-102.5 43t-104 -46q-36 -40 -36 -95t37 -97q41 -44 103 -44 q63 0 101.5 42.5t38.5 98.5z"/>
<hkern g2="v" k="20" g1="a,agrave,aacute,acircumflex,atilde,adieresis,aring,ae"/>
<hkern g2="w" k="10" g1="a,agrave,aacute,acircumflex,atilde,adieresis,aring,ae"/>
<hkern g2="y,yacute,ydieresis" k="20" g1="a,agrave,aacute,acircumflex,atilde,adieresis,aring,ae"/>
<hkern g2="v" k="70" g1="A,Agrave,Aacute,Acircumflex,Atilde,Adieresis,Aring"/>
<hkern g2="w" k="50" g1="A,Agrave,Aacute,Acircumflex,Atilde,Adieresis,Aring"/>
<hkern g2="y,yacute,ydieresis" k="68" g1="A,Agrave,Aacute,Acircumflex,Atilde,Adieresis,Aring"/>
<hkern g2="C,Ccedilla" k="60" g1="A,Agrave,Aacute,Acircumflex,Atilde,Adieresis,Aring"/>
<hkern g2="G" k="60" g1="A,Agrave,Aacute,Acircumflex,Atilde,Adieresis,Aring"/>
<hkern g2="O,Ograve,Oacute,Ocircumflex,Otilde,Odieresis,Oslash,OE" k="60" g1="A,Agrave,Aacute,Acircumflex,Atilde,Adieresis,Aring"/>
<hkern g2="Q" k="60" g1="A,Agrave,Aacute,Acircumflex,Atilde,Adieresis,Aring"/>
<hkern g2="T" k="60" g1="A,Agrave,Aacute,Acircumflex,Atilde,Adieresis,Aring"/>
<hkern g2="u,ugrave,uacute,ucircumflex,udieresis" k="40" g1="A,Agrave,Aacute,Acircumflex,Atilde,Adieresis,Aring"/>
<hkern g2="U,Ugrave,Uacute,Ucircumflex,Udieresis" k="40" g1="A,Agrave,Aacute,Acircumflex,Atilde,Adieresis,Aring"/>
<hkern g2="V" k="110" g1="A,Agrave,Aacute,Acircumflex,Atilde,Adieresis,Aring"/>
<hkern g2="W" k="60" g1="A,Agrave,Aacute,Acircumflex,Atilde,Adieresis,Aring"/>
<hkern g2="Y,Yacute,Ydieresis" k="100" g1="A,Agrave,Aacute,Acircumflex,Atilde,Adieresis,Aring"/>
<hkern g2="quotedblright" k="80" g1="A,Agrave,Aacute,Acircumflex,Atilde,Adieresis,Aring"/>
<hkern g2="quoteright" k="80" g1="A,Agrave,Aacute,Acircumflex,Atilde,Adieresis,Aring"/>
<hkern g2="v" k="35" g1="b,thorn"/>
<hkern g2="y,yacute,ydieresis" k="20" g1="b,thorn"/>
<hkern g2="comma" k="10" g1="b,thorn"/>
<hkern g2="period" k="10" g1="b,thorn"/>
<hkern g2="U,Ugrave,Uacute,Ucircumflex,Udieresis" k="10" g1="B"/>
<hkern g2="A,Agrave,Aacute,Acircumflex,Atilde,Adieresis,Aring,AE" k="30" g1="B"/>
<hkern g2="y,yacute,ydieresis" k="20" g1="c,ccedilla"/>
<hkern g2="comma" k="15" g1="c,ccedilla"/>
<hkern g2="h" k="15" g1="c,ccedilla"/>
<hkern g2="k" k="15" g1="c,ccedilla"/>
<hkern g2="l,lslash" k="15" g1="c,ccedilla"/>
<hkern g2="A,Agrave,Aacute,Acircumflex,Atilde,Adieresis,Aring,AE" k="60" g1="C,Ccedilla"/>
<hkern g2="V" k="50" g1="D,Eth"/>
<hkern g2="W" k="25" g1="D,Eth"/>
<hkern g2="Y,Yacute,Ydieresis" k="60" g1="D,Eth"/>
<hkern g2="comma" k="45" g1="D,Eth"/>
<hkern g2="period" k="45" g1="D,Eth"/>
<hkern g2="A,Agrave,Aacute,Acircumflex,Atilde,Adieresis,Aring,AE" k="50" g1="D,Eth"/>
<hkern g2="v" k="35" g1="e,egrave,eacute,ecircumflex,edieresis"/>
<hkern g2="w" k="20" g1="e,egrave,eacute,ecircumflex,edieresis"/>
<hkern g2="y,yacute,ydieresis" k="30" g1="e,egrave,eacute,ecircumflex,edieresis"/>
<hkern g2="comma" k="15" g1="e,egrave,eacute,ecircumflex,edieresis"/>
<hkern g2="period" k="20" g1="e,egrave,eacute,ecircumflex,edieresis"/>
<hkern g2="x" k="40" g1="e,egrave,eacute,ecircumflex,edieresis"/>
<hkern g2="quotedblright" k="-40" g1="f,fi,fl"/>
<hkern g2="quoteright" k="-40" g1="f,fi,fl"/>
<hkern g2="comma" k="50" g1="f,fi,fl"/>
<hkern g2="period" k="50" g1="f,fi,fl"/>
<hkern g2="a,agrave,aacute,acircumflex,atilde,adieresis,aring,ae" k="20" g1="f,fi,fl"/>
<hkern g2="e,egrave,eacute,ecircumflex,edieresis" k="20" g1="f,fi,fl"/>
<hkern g2="o,ograve,oacute,ocircumflex,otilde,odieresis,oslash,oe" k="20" g1="f,fi,fl"/>
<hkern g2="comma" k="162" g1="F"/>
<hkern g2="period" k="129" g1="F"/>
<hkern g2="A,Agrave,Aacute,Acircumflex,Atilde,Adieresis,Aring,AE" k="60" g1="F"/>
<hkern g2="a,agrave,aacute,acircumflex,atilde,adieresis,aring,ae" k="20" g1="F"/>
<hkern g2="e,egrave,eacute,ecircumflex,edieresis" k="20" g1="F"/>
<hkern g2="o,ograve,oacute,ocircumflex,otilde,odieresis,oslash,oe" k="20" g1="F"/>
<hkern g2="comma" k="20" g1="G"/>
<hkern g2="period" k="20" g1="G"/>
<hkern g2="A,Agrave,Aacute,Acircumflex,Atilde,Adieresis,Aring,AE" k="60" g1="G"/>
<hkern g2="y,yacute,ydieresis" k="30" g1="h"/>
<hkern g2="u,ugrave,uacute,ucircumflex,udieresis" k="10" g1="h"/>
<hkern g2="u,ugrave,uacute,ucircumflex,udieresis" k="10" g1="J"/>
<hkern g2="comma" k="15" g1="J"/>
<hkern g2="period" k="25" g1="J"/>
<hkern g2="A,Agrave,Aacute,Acircumflex,Atilde,Adieresis,Aring,AE" k="40" g1="J"/>
<hkern g2="a,agrave,aacute,acircumflex,atilde,adieresis,aring,ae" k="20" g1="J"/>
<hkern g2="e,egrave,eacute,ecircumflex,edieresis" k="20" g1="J"/>
<hkern g2="o,ograve,oacute,ocircumflex,otilde,odieresis,oslash,oe" k="20" g1="J"/>
<hkern g2="y,yacute,ydieresis" k="20" g1="k"/>
<hkern g2="a,agrave,aacute,acircumflex,atilde,adieresis,aring,ae" k="40" g1="k"/>
<hkern g2="e,egrave,eacute,ecircumflex,edieresis" k="40" g1="k"/>
<hkern g2="o,ograve,oacute,ocircumflex,otilde,odieresis,oslash,oe" k="40" g1="k"/>
<hkern g2="y,yacute,ydieresis" k="50" g1="K"/>
<hkern g2="O,Ograve,Oacute,Ocircumflex,Otilde,Odieresis,Oslash,OE" k="45" g1="K"/>
<hkern g2="u,ugrave,uacute,ucircumflex,udieresis" k="40" g1="K"/>
<hkern g2="a,agrave,aacute,acircumflex,atilde,adieresis,aring,ae" k="50" g1="K"/>
<hkern g2="e,egrave,eacute,ecircumflex,edieresis" k="50" g1="K"/>
<hkern g2="o,ograve,oacute,ocircumflex,otilde,odieresis,oslash,oe" k="50" g1="K"/>
<hkern g2="y,yacute,ydieresis" k="40" g1="L,Lslash"/>
<hkern g2="O,Ograve,Oacute,Ocircumflex,Otilde,Odieresis,Oslash,OE" k="40" g1="L,Lslash"/>
<hkern g2="T" k="50" g1="L,Lslash"/>
<hkern g2="V" k="85" g1="L,Lslash"/>
<hkern g2="W" k="55" g1="L,Lslash"/>
<hkern g2="Y,Yacute,Ydieresis" k="85" g1="L,Lslash"/>
<hkern g2="quotedblright" k="60" g1="L,Lslash"/>
<hkern g2="quoteright" k="60" g1="L,Lslash"/>
<hkern g2="o,ograve,oacute,ocircumflex,otilde,odieresis,oslash,oe" k="30" g1="L,Lslash"/>
<hkern g2="y,yacute,ydieresis" k="30" g1="m"/>
<hkern g2="u,ugrave,uacute,ucircumflex,udieresis" k="10" g1="m"/>
<hkern g2="v" k="45" g1="n,ntilde"/>
<hkern g2="y,yacute,ydieresis" k="30" g1="n,ntilde"/>
<hkern g2="u,ugrave,uacute,ucircumflex,udieresis" k="10" g1="n,ntilde"/>
<hkern g2="v" k="35" g1="o,ograve,oacute,ocircumflex,otilde,odieresis,oslash,oe"/>
<hkern g2="w" k="30" g1="o,ograve,oacute,ocircumflex,otilde,odieresis,oslash,oe"/>
<hkern g2="y,yacute,ydieresis" k="30" g1="o,ograve,oacute,ocircumflex,otilde,odieresis,oslash,oe"/>
<hkern g2="comma" k="15" g1="o,ograve,oacute,ocircumflex,otilde,odieresis,oslash,oe"/>
<hkern g2="period" k="20" g1="o,ograve,oacute,ocircumflex,otilde,odieresis,oslash,oe"/>
<hkern g2="x" k="40" g1="o,ograve,oacute,ocircumflex,otilde,odieresis,oslash,oe"/>
<hkern g2="T" k="30" g1="O,Ograve,Oacute,Ocircumflex,Otilde,Odieresis,Oslash,OE"/>
<hkern g2="V" k="45" g1="O,Ograve,Oacute,Ocircumflex,Otilde,Odieresis,Oslash,OE"/>
<hkern g2="W" k="20" g1="O,Ograve,Oacute,Ocircumflex,Otilde,Odieresis,Oslash,OE"/>
<hkern g2="Y,Yacute,Ydieresis" k="65" g1="O,Ograve,Oacute,Ocircumflex,Otilde,Odieresis,Oslash,OE"/>
<hkern g2="comma" k="30" g1="O,Ograve,Oacute,Ocircumflex,Otilde,Odieresis,Oslash,OE"/>
<hkern g2="period" k="30" g1="O,Ograve,Oacute,Ocircumflex,Otilde,Odieresis,Oslash,OE"/>
<hkern g2="A,Agrave,Aacute,Acircumflex,Atilde,Adieresis,Aring,AE" k="60" g1="O,Ograve,Oacute,Ocircumflex,Otilde,Odieresis,Oslash,OE"/>
<hkern g2="X" k="60" g1="O,Ograve,Oacute,Ocircumflex,Otilde,Odieresis,Oslash,OE"/>
<hkern g2="y,yacute,ydieresis" k="30" g1="p"/>
<hkern g2="comma" k="15" g1="p"/>
<hkern g2="period" k="20" g1="p"/>
<hkern g2="comma" k="220" g1="P"/>
<hkern g2="period" k="200" g1="P"/>
<hkern g2="A,Agrave,Aacute,Acircumflex,Atilde,Adieresis,Aring,AE" k="90" g1="P"/>
<hkern g2="a,agrave,aacute,acircumflex,atilde,adieresis,aring,ae" k="20" g1="P"/>
<hkern g2="e,egrave,eacute,ecircumflex,edieresis" k="20" g1="P"/>
<hkern g2="o,ograve,oacute,ocircumflex,otilde,odieresis,oslash,oe" k="20" g1="P"/>
<hkern g2="comma" k="-20" g1="Q"/>
<hkern g2="u,ugrave,uacute,ucircumflex,udieresis" k="-10" g1="r"/>
<hkern g2="comma" k="75" g1="r"/>
<hkern g2="period" k="80" g1="r"/>
<hkern g2="h" k="-10" g1="r"/>
<hkern g2="k" k="-10" g1="r"/>
<hkern g2="l,lslash" k="-10" g1="r"/>
<hkern g2="x" k="10" g1="r"/>
<hkern g2="a,agrave,aacute,acircumflex,atilde,adieresis,aring,ae" k="15" g1="r"/>
<hkern g2="e,egrave,eacute,ecircumflex,edieresis" k="15" g1="r"/>
<hkern g2="o,ograve,oacute,ocircumflex,otilde,odieresis,oslash,oe" k="15" g1="r"/>
<hkern g2="c,ccedilla" k="15" g1="r"/>
<hkern g2="d,dotlessi" k="15" g1="r"/>
<hkern g2="g" k="15" g1="r"/>
<hkern g2="i,igrave,iacute,icircumflex,idieresis" k="-10" g1="r"/>
<hkern g2="m" k="-10" g1="r"/>
<hkern g2="n,ntilde" k="-10" g1="r"/>
<hkern g2="p" k="-10" g1="r"/>
<hkern g2="q" k="15" g1="r"/>
<hkern g2="t" k="-20" g1="r"/>
<hkern g2="z,zcaron" k="-10" g1="r"/>
<hkern g2="hyphen" k="50" g1="r"/>
<hkern g2="O,Ograve,Oacute,Ocircumflex,Otilde,Odieresis,Oslash,OE" k="5" g1="R"/>
<hkern g2="V" k="25" g1="R"/>
<hkern g2="W" k="5" g1="R"/>
<hkern g2="Y,Yacute,Ydieresis" k="25" g1="R"/>
<hkern g2="w" k="5" g1="s,germandbls,scaron"/>
<hkern g2="comma" k="-5" g1="s,germandbls,scaron"/>
<hkern g2="comma" k="-20" g1="S,Scaron"/>
<hkern g2="a,agrave,aacute,acircumflex,atilde,adieresis,aring,ae" k="20" g1="t"/>
<hkern g2="e,egrave,eacute,ecircumflex,edieresis" k="20" g1="t"/>
<hkern g2="o,ograve,oacute,ocircumflex,otilde,odieresis,oslash,oe" k="20" g1="t"/>
<hkern g2="w" k="55" g1="T"/>
<hkern g2="y,yacute,ydieresis" k="15" g1="T"/>
<hkern g2="O,Ograve,Oacute,Ocircumflex,Otilde,Odieresis,Oslash,OE" k="30" g1="T"/>
<hkern g2="u,ugrave,uacute,ucircumflex,udieresis" k="46" g1="T"/>
<hkern g2="comma" k="82" g1="T"/>
<hkern g2="period" k="100" g1="T"/>
<hkern g2="A,Agrave,Aacute,Acircumflex,Atilde,Adieresis,Aring,AE" k="60" g1="T"/>
<hkern g2="a,agrave,aacute,acircumflex,atilde,adieresis,aring,ae" k="70" g1="T"/>
<hkern g2="e,egrave,eacute,ecircumflex,edieresis" k="70" g1="T"/>
<hkern g2="o,ograve,oacute,ocircumflex,otilde,odieresis,oslash,oe" k="70" g1="T"/>
<hkern g2="c,ccedilla" k="70" g1="T"/>
<hkern g2="hyphen" k="75" g1="T"/>
<hkern g2="r" k="30" g1="T"/>
<hkern g2="s,scaron" k="40" g1="T"/>
<hkern g2="colon" k="20" g1="T"/>
<hkern g2="semicolon" k="29" g1="T"/>
<hkern g2="comma" k="20" g1="U,Ugrave,Uacute,Ucircumflex,Udieresis"/>
<hkern g2="period" k="20" g1="U,Ugrave,Uacute,Ucircumflex,Udieresis"/>
<hkern g2="A,Agrave,Aacute,Acircumflex,Atilde,Adieresis,Aring,AE" k="40" g1="U,Ugrave,Uacute,Ucircumflex,Udieresis"/>
<hkern g2="comma" k="90" g1="v"/>
<hkern g2="period" k="90" g1="v"/>
<hkern g2="a,agrave,aacute,acircumflex,atilde,adieresis,aring,ae" k="35" g1="v"/>
<hkern g2="e,egrave,eacute,ecircumflex,edieresis" k="35" g1="v"/>
<hkern g2="o,ograve,oacute,ocircumflex,otilde,odieresis,oslash,oe" k="35" g1="v"/>
<hkern g2="y,yacute,ydieresis" k="10" g1="V"/>
<hkern g2="G" k="45" g1="V"/>
<hkern g2="O,Ograve,Oacute,Ocircumflex,Otilde,Odieresis,Oslash,OE" k="45" g1="V"/>
<hkern g2="u,ugrave,uacute,ucircumflex,udieresis" k="60" g1="V"/>
<hkern g2="comma" k="145" g1="V"/>
<hkern g2="period" k="145" g1="V"/>
<hkern g2="A,Agrave,Aacute,Acircumflex,Atilde,Adieresis,Aring,AE" k="110" g1="V"/>
<hkern g2="a,agrave,aacute,acircumflex,atilde,adieresis,aring,ae" k="101" g1="V"/>
<hkern g2="e,egrave,eacute,ecircumflex,edieresis" k="101" g1="V"/>
<hkern g2="o,ograve,oacute,ocircumflex,otilde,odieresis,oslash,oe" k="101" g1="V"/>
<hkern g2="i,igrave,iacute,icircumflex,idieresis" k="30" g1="V"/>
<hkern g2="hyphen" k="75" g1="V"/>
<hkern g2="r" k="60" g1="V"/>
<hkern g2="colon" k="25" g1="V"/>
<hkern g2="semicolon" k="50" g1="V"/>
<hkern g2="comma" k="90" g1="w"/>
<hkern g2="period" k="90" g1="w"/>
<hkern g2="a,agrave,aacute,acircumflex,atilde,adieresis,aring,ae" k="30" g1="w"/>
<hkern g2="e,egrave,eacute,ecircumflex,edieresis" k="20" g1="w"/>
<hkern g2="o,ograve,oacute,ocircumflex,otilde,odieresis,oslash,oe" k="30" g1="w"/>
<hkern g2="y,yacute,ydieresis" k="40" g1="W"/>
<hkern g2="O,Ograve,Oacute,Ocircumflex,Otilde,Odieresis,Oslash,OE" k="20" g1="W"/>
<hkern g2="u,ugrave,uacute,ucircumflex,udieresis" k="50" g1="W"/>
<hkern g2="comma" k="106" g1="W"/>
<hkern g2="period" k="106" g1="W"/>
<hkern g2="A,Agrave,Aacute,Acircumflex,Atilde,Adieresis,Aring,AE" k="60" g1="W"/>
<hkern g2="h" k="15" g1="W"/>
<hkern g2="a,agrave,aacute,acircumflex,atilde,adieresis,aring,ae" k="70" g1="W"/>
<hkern g2="e,egrave,eacute,ecircumflex,edieresis" k="70" g1="W"/>
<hkern g2="o,ograve,oacute,ocircumflex,otilde,odieresis,oslash,oe" k="70" g1="W"/>
<hkern g2="i,igrave,iacute,icircumflex,idieresis" k="15" g1="W"/>
<hkern g2="hyphen" k="35" g1="W"/>
<hkern g2="r" k="40" g1="W"/>
<hkern g2="colon" k="20" g1="W"/>
<hkern g2="semicolon" k="40" g1="W"/>
<hkern g2="a,agrave,aacute,acircumflex,atilde,adieresis,aring,ae" k="40" g1="x"/>
<hkern g2="e,egrave,eacute,ecircumflex,edieresis" k="40" g1="x"/>
<hkern g2="o,ograve,oacute,ocircumflex,otilde,odieresis,oslash,oe" k="40" g1="x"/>
<hkern g2="C,Ccedilla" k="60" g1="X"/>
<hkern g2="O,Ograve,Oacute,Ocircumflex,Otilde,Odieresis,Oslash,OE" k="60" g1="X"/>
<hkern g2="a,agrave,aacute,acircumflex,atilde,adieresis,aring,ae" k="40" g1="X"/>
<hkern g2="e,egrave,eacute,ecircumflex,edieresis" k="40" g1="X"/>
<hkern g2="o,ograve,oacute,ocircumflex,otilde,odieresis,oslash,oe" k="40" g1="X"/>
<hkern g2="comma" k="100" g1="y,yacute,ydieresis"/>
<hkern g2="period" k="105" g1="y,yacute,ydieresis"/>
<hkern g2="a,agrave,aacute,acircumflex,atilde,adieresis,aring,ae" k="30" g1="y,yacute,ydieresis"/>
<hkern g2="e,egrave,eacute,ecircumflex,edieresis" k="30" g1="y,yacute,ydieresis"/>
<hkern g2="o,ograve,oacute,ocircumflex,otilde,odieresis,oslash,oe" k="30" g1="y,yacute,ydieresis"/>
<hkern g2="r" k="15" g1="y,yacute,ydieresis"/>
<hkern g2="v" k="60" g1="Y,Yacute,Ydieresis"/>
<hkern g2="O,Ograve,Oacute,Ocircumflex,Otilde,Odieresis,Oslash,OE" k="65" g1="Y,Yacute,Ydieresis"/>
<hkern g2="u,ugrave,uacute,ucircumflex,udieresis" k="70" g1="Y,Yacute,Ydieresis"/>
<hkern g2="comma" k="145" g1="Y,Yacute,Ydieresis"/>
<hkern g2="period" k="145" g1="Y,Yacute,Ydieresis"/>
<hkern g2="A,Agrave,Aacute,Acircumflex,Atilde,Adieresis,Aring,AE" k="100" g1="Y,Yacute,Ydieresis"/>
<hkern g2="a,agrave,aacute,acircumflex,atilde,adieresis,aring,ae" k="100" g1="Y,Yacute,Ydieresis"/>
<hkern g2="e,egrave,eacute,ecircumflex,edieresis" k="100" g1="Y,Yacute,Ydieresis"/>
<hkern g2="o,ograve,oacute,ocircumflex,otilde,odieresis,oslash,oe" k="100" g1="Y,Yacute,Ydieresis"/>
<hkern g2="i,igrave,iacute,icircumflex,idieresis" k="25" g1="Y,Yacute,Ydieresis"/>
<hkern g2="p" k="50" g1="Y,Yacute,Ydieresis"/>
<hkern g2="q" k="100" g1="Y,Yacute,Ydieresis"/>
<hkern g2="hyphen" k="100" g1="Y,Yacute,Ydieresis"/>
<hkern g2="colon" k="25" g1="Y,Yacute,Ydieresis"/>
<hkern g2="semicolon" k="40" g1="Y,Yacute,Ydieresis"/>
<hkern g2="S,Scaron" k="20" g1="Y,Yacute,Ydieresis"/>
<hkern g2="A,Agrave,Aacute,Acircumflex,Atilde,Adieresis,Aring,AE" k="80" g1="quotedblleft"/>
<hkern g2="A,Agrave,Aacute,Acircumflex,Atilde,Adieresis,Aring,AE" k="80" g1="quoteleft"/>
<hkern g2="v" k="100" g1="quoteright"/>
<hkern g2="l,lslash" k="75" g1="quoteright"/>
<hkern g2="d,dotlessi" k="160" g1="quoteright"/>
<hkern g2="t" k="60" g1="quoteright"/>
<hkern g2="r" k="125" g1="quoteright"/>
<hkern g2="s,scaron" k="150" g1="quoteright"/>
<hkern g2="T" k="75" g1="space"/>
<hkern g2="V" k="100" g1="space"/>
<hkern g2="W" k="40" g1="space"/>
<hkern g2="Y,Yacute,Ydieresis" k="100" g1="space"/>
<hkern g2="A,Agrave,Aacute,Acircumflex,Atilde,Adieresis,Aring,AE" k="30" g1="space"/>
</font>
</defs>
</svg>
